ML Part-3: Spam Data
…
2- 91% of this data is marked as spam.

We can also choose which columns to be focused on:

set.seed(39) #Set the random seed
spam2 <-
spam_data %>%
select(V16,V20,V24,spam_or_not) %>% #Select only required columns
filter(complete.cases(.)) %>% #Remove all NA including rows
#Split the data into train and test
mutate(train_test = ifelse(runif(nrow(.)) < 0.25,"test","train")) %>%
tbl_df()
print(spam2)

## # A tibble: 4,601 x 5
##       V16    V20    V24 spam_or_not train_test
##     <dbl>  <dbl>  <dbl>       <int> <chr>     
##  1 0.320  0.     0.               1 train     
##  2 0.140  0.     0.430            1 test      
##  3 0.0600 0.320  0.0600           1 test      
##  4 0.310  0.     0.               1 test      
##  5 0.310  0.     0.               1 train     
##  6 0.     0.     0.               1 train     
##  7 0.960  0.     0.               1 train     
##  8 0.     0.     0.               1 train     
##  9 0.     0.0600 0.               1 train     
## 10 0.     0.     0.               1 train     
## # ... with 4,591 more rows
…
