ML Part-1 WIP
…
## See spec(...) for full column specifications.

print(youth_responses)

## # A tibble: 1,010 x 150
##    Music `Slow songs or fastâ€¦ Dance  Folk Country `Classical musiâ€¦ Musical
##    <int>                <int> <int> <int>   <int>            <int>   <int>
##  1     5                    3     2     1       2                2       1
##  2     4                    4     2     1       1                1       2
##  3     5                    5     2     2       3                4       5
##  4     5                    3     2     1       1                1       1
##  5     5                    3     4     3       2                4       3
##  6     5                    3     2     3       2                3       3
##  7     5                    5     5     3       1                2       2
##  8     5                    3     3     2       1                2       2
##  9     5                    3     3     1       1                2       4
## 10     5                    3     2     5       2                2       5
## # ... with 1,000 more rows, and 143 more variables: Pop <int>, Rock <int>,
## #   `Metal or Hardrock` <int>, Punk <int>, `Hiphop, Rap` <int>, `Reggae,
## #   Ska` <int>, `Swing, Jazz` <int>, `Rock n roll` <int>,
## #   Alternative <int>, Latino <int>, `Techno, Trance` <int>, Opera <int>,
## #   Movies <int>, Horror <int>, Thriller <int>, Comedy <int>,
## #   Romantic <int>, `Sci-fi` <int>, War <int>, `Fantasy/Fairy
## #   tales` <int>, Animated <int>, Documentary <int>, Western <int>,
## #   Action <int>, History <int>, Psychology <int>, Politics <int>,
## #   Mathematics <int>, Physics <int>, Internet <int>, PC <int>, `Economy
…
