Tidy Analysis of OSYM Data
…
##  Conflicts  tidyverse_conflicts() 
##  dplyr::filter() masks stats::filter()
##  dplyr::lag()    masks stats::lag()

load("~/Desktop/ETM 2018 Spring/ETM 58D/Assignments/SYM Individual (20.04)/osym_data_2017_v2.RData")

Then, we print the data to have a brief understanding of the format:

print(osym_data_2017)

## # A tibble: 11,465 x 14
##    program_id university_name  city  faculty_name  program_name  exam_type
##    <chr>      <chr>            <chr> <chr>         <chr>         <chr>    
##  1 100110266  ABANT ZZET BAY BOLU  Bolu Salk  Hemirelik    YGS_2    
##  2 100110487  ABANT ZZET BAY BOLU  Bolu Turizm  Gastronomi v YGS_4    
##  3 100110724  ABANT ZZET BAY BOLU  Bolu Turizm  Turizm let YGS_6    
##  4 100130252  ABANT ZZET BAY BOLU  Bolu Turizm  Turizm let YGS_6    
##  5 100110433  ABANT ZZET BAY BOLU  Di Hekimli Di Hekimlii MF_3     
##  6 100110609  ABANT ZZET BAY BOLU  Di Hekimli Di Hekimli MF_3     
##  7 100110018  ABANT ZZET BAY BOLU  Eitim Fakl Bilgisayar v MF_1     
##  8 100110027  ABANT ZZET BAY BOLU  Eitim Fakl Fen Bilgisi  MF_2     
##  9 100110036  ABANT ZZET BAY BOLU  Eitim Fakl lkretim M MF_1     
## 10 100110045  ABANT ZZET BAY BOLU  Eitim Fakl ngilizce  DL_1    
## # ... with 11,455 more rows, and 8 more variables: general_quota <chr>,
## #   general_placement <chr>, min_score <dbl>, max_score <dbl>,
## #   val_quota <dbl>, val_placement <dbl>, val_min_score <dbl>,
## #   val_max_score <dbl>
…
We create a new dataset with just the information of program name, max score and exam type.

osym_data_2017_q1 <- osym_data_2017 %>% select(program_name, 
    max_score, exam_type)

Then, we filter this dataset for MF_4

filtered_by_mf4 <- osym_data_2017_q1 %>% filter(exam_type == 
    "MF_4")

Now, we arrange this new dataset as per the decreasing order of max_score

filtered_by_mf4 %>% arrange(desc(max_score))

## # A tibble: 2,742 x 3
##    program_name                                        max_score exam_type
##    <chr>                                                   <dbl> <chr>    
##  1 Elektrik - Elektronik Mhendislii (ngilizce)           575. MF_4     
##  2 Elektrik - Elektronik Mhendislii (ngilizce) (Ta      569. MF_4     
##  3 Elektrik - Elektronik Mhendislii (ngilizce) (Ta      566. MF_4     
##  4 Bilgisayar Mhendislii (ngilizce)                      563. MF_4     
##  5 Bilgisayar Mhendislii (ngilizce) (Tam Burslu)         551. MF_4     
##  6 Bilgisayar Mhendislii (ngilizce) (Tam Burslu)         550. MF_4     
##  7 Elektrik - Elektronik Mhendislii (ngilizce)           548. MF_4     
##  8 Endstri Mhendislii (ngilizce)                        544. MF_4     
##  9 Makine Mhendislii (ngilizce) (Tam Burslu)             540. MF_4     
## 10 Endstri Mhendislii (ngilizce) (Tam Burslu)           540. MF_4     
## # ... with 2,732 more rows
…
osym_data_2017_q3 <- osym_data_2017 %>% select(city,general_placement,general_quota) %>% group_by(city) %>% summarise(fill_rate = sum(general_placement)/sum(general_quota)) %>% arrange(desc(fill_rate)) %>% slice(1:10)

Unfortunately, this code created an error and I couldnt solve it, so I cant show a result for this part.

Find full (general_placement == general_quota) Endstri Mhendislii programs (use grepl) and draw a scatterplot of min_score vs max_score. Set transparency parameter (alpha) to 0.7. Set program colors according to whether it is a foundation university or state university. (Tip: State university programs ids start with 1, foundation 2, KKTC 3 and other abroad 4. You can use substr function.).

Now, we should see the difference in using grepl rather than regular filtering:

ind_eng <- osym_data_2017 %>% filter(grepl("Endstri Mhendislii", 
    program_name))
ind_eng_2 <- osym_data_2017 %>% filter(program_name == "Endstri Mhendislii")
print(ind_eng)

## # A tibble: 209 x 14
##    program_id university_name  city   faculty_name program_name  exam_type
##    <chr>      <chr>            <chr>  <chr>        <chr>         <chr>    
##  1 106510023  ABDULLAH GL N KAYSE Mhendislik Endstri Mh MF_4     
##  2 110410161  ADANA BLM VE  ADANA  Mhendislik Endstri Mh MF_4     
##  3 100810383  AKSARAY NVERS AKSAR Mhendislik Endstri Mh MF_4     
##  4 100830254  AKSARAY NVERS AKSAR Mhendislik Endstri Mh MF_4     
##  5 110510045  ALANYA ALAADDN ANTAL Mhendislik Endstri Mh MF_4     
##  6 202910887  ALTINBA NVER STAN Mhendislik Endstri Mh MF_4     
##  7 202910145  ALTINBA NVER STAN Mhendislik Endstri Mh MF_4     
##  8 202910136  ALTINBA NVER STAN Mhendislik Endstri Mh MF_4     
##  9 202911161  ALTINBA NVER STAN Mhendislik Endstri Mh MF_4     
## 10 202910366  ALTINBA NVER STAN Mhendislik Endstri Mh MF_4     
## # ... with 199 more rows, and 8 more variables: general_quota <chr>,
## #   general_placement <chr>, min_score <dbl>, max_score <dbl>,
## #   val_quota <dbl>, val_placement <dbl>, val_min_score <dbl>,
## #   val_max_score <dbl>

print(ind_eng_2)

## # A tibble: 31 x 14
##    program_id university_name   city  faculty_name  program_name exam_type
##    <chr>      <chr>             <chr> <chr>         <chr>        <chr>    
##  1 110410161  ADANA BLM VE T ADANA Mhendislik  Endstri M MF_4     
##  2 100810383  AKSARAY NVERS AKSA Mhendislik  Endstri M MF_4     
##  3 110510045  ALANYA ALAADDN  ANTA Mhendislik  Endstri M MF_4     
##  4 101011032  ANADOLU NVERS ESK Mhendislik  Endstri M MF_4     
##  5 101410833  ATATRK NVERS ERZU Mhendislik  Endstri M MF_4     
##  6 101510117  BALIKESR NVER BALI Mhendislik  Endstri M MF_4     
##  7 101810202  BAYBURT NVERS BAYB Mhendislik  Endstri M MF_4     
##  8 102910297  UKUROVA NVERS ADANA Mhendislik  Endstri M MF_4     
##  9 103110478  DOKUZ EYLL NV ZMR Mhendislik  Endstri M MF_4     
## 10 103210195  DUMLUPINAR NVE KTA Mhendislik  Endstri M MF_4     
## # ... with 21 more rows, and 8 more variables: general_quota <chr>,
## #   general_placement <chr>, min_score <dbl>, max_score <dbl>,
## #   val_quota <dbl>, val_placement <dbl>, val_min_score <dbl>,
## #   val_max_score <dbl>

With grepl, we were able to see all programs that include Endstri Mhendislii, however regular filtering just shows the programs which are directly named as Endstri Mhendislii.

After obtaining the data, we find the full programs and make the scatter plot:

full_programs <- ind_eng %>% filter(general_quota == general_placement)
print(full_programs)

## # A tibble: 119 x 14
##    program_id university_name  city  faculty_name  program_name  exam_type
##    <chr>      <chr>            <chr> <chr>         <chr>         <chr>    
##  1 106510023  ABDULLAH GL N KAYS Mhendislik  Endstri Mh MF_4     
##  2 202910136  ALTINBA NVER STA Mhendislik  Endstri Mh MF_4     
##  3 202910366  ALTINBA NVER STA Mhendislik  Endstri Mh MF_4     
##  4 101011032  ANADOLU NVERS ESK Mhendislik  Endstri Mh MF_4     
##  5 206410262  ANTALYA BLM  ANTA Mhendislik  Endstri Mh MF_4     
##  6 200210997  ATILIM NVERS ANKA Mhendislik  Endstri Mh MF_4     
##  7 200210413  ATILIM NVERS ANKA Mhendislik  Endstri Mh MF_4     
##  8 200210404  ATILIM NVERS ANKA Mhendislik  Endstri Mh MF_4     
##  9 200510701  BAHEEHR NV STA Mhendislik  Endstri Mh MF_4     
## 10 200510507  BAHEEHR NV STA Mhendislik  Endstri Mh MF_4     
## # ... with 109 more rows, and 8 more variables: general_quota <chr>,
## #   general_placement <chr>, min_score <dbl>, max_score <dbl>,
## #   val_quota <dbl>, val_placement <dbl>, val_min_score <dbl>,
## #   val_max_score <dbl>
…
Also, among full programs, we can see how many are state and how many are foundation:

program_id <- as.numeric(program_id)
devlet <- full_programs %>% filter(program_id <= 1e+08)
vakif <- full_programs %>% filter(program_id <= 2e+08, program_id >= 
    1e+08)
print(devlet)

## # A tibble: 27 x 14
##    program_id university_name  city   faculty_name program_name  exam_type
##    <chr>      <chr>            <chr>  <chr>        <chr>         <chr>    
##  1 106510023  ABDULLAH GL N KAYSE Mhendislik Endstri Mh MF_4     
##  2 101011032  ANADOLU NVERS ESK Mhendislik Endstri Mh MF_4     
##  3 102210295  BOAZ NVER STAN Mhendislik Endstri Mh MF_4     
##  4 102910297  UKUROVA NVER ADANA  Mhendislik Endstri Mh MF_4     
##  5 103110478  DOKUZ EYLL N ZMR  Mhendislik Endstri Mh MF_4     
##  6 103810198  ESKEHR OSMAN ESK Mhendislik Endstri Mh MF_4     
##  7 103810559  ESKEHR OSMAN ESK Mhendislik Endstri Mh MF_4     
##  8 104010131  GALATASARAY N STAN Mhendislik Endstri Mh MF_4     
##  9 104110642  GAZ NVERSTE ANKARA Mhendislik Endstri Mh MF_4     
## 10 104112108  GAZ NVERSTE ANKARA Mhendislik Endstri Mh MF_4     
## # ... with 17 more rows, and 8 more variables: general_quota <chr>,
## #   general_placement <chr>, min_score <dbl>, max_score <dbl>,
## #   val_quota <dbl>, val_placement <dbl>, val_min_score <dbl>,
## #   val_max_score <dbl>

print(vakif)

## # A tibble: 91 x 14
##    program_id university_name  city  faculty_name  program_name  exam_type
##    <chr>      <chr>            <chr> <chr>         <chr>         <chr>    
##  1 202910136  ALTINBA NVER STA Mhendislik  Endstri Mh MF_4     
##  2 202910366  ALTINBA NVER STA Mhendislik  Endstri Mh MF_4     
##  3 206410262  ANTALYA BLM  ANTA Mhendislik  Endstri Mh MF_4     
##  4 200210997  ATILIM NVERS ANKA Mhendislik  Endstri Mh MF_4     
##  5 200210413  ATILIM NVERS ANKA Mhendislik  Endstri Mh MF_4     
##  6 200210404  ATILIM NVERS ANKA Mhendislik  Endstri Mh MF_4     
##  7 200510701  BAHEEHR NV STA Mhendislik  Endstri Mh MF_4     
##  8 200510507  BAHEEHR NV STA Mhendislik  Endstri Mh MF_4     
##  9 200510491  BAHEEHR NV STA Mhendislik  Endstri Mh MF_4     
## 10 200611037  BAKENT NVERS ANKA Mhendislik  Endstri Mh MF_4     
## # ... with 81 more rows, and 8 more variables: general_quota <chr>,
## #   general_placement <chr>, min_score <dbl>, max_score <dbl>,
## #   val_quota <dbl>, val_placement <dbl>, val_min_score <dbl>,
## #   val_max_score <dbl>
…
Find all full medicine programs (Tp but not Tp Mhendislii) of foundation universities group by university calculate total quotas per university and maximum max_score and minimum min_score as bounds, ordered and colored by total quota. (Tip: Use geom_crossbar)

We can again use grepl to find requested programs:

medicals <- osym_data_2017 %>% filter(grepl("Tp", program_name)) %>% 
    filter(!grepl("Mhendis", program_name))
medicals <- medicals %>% group_by(university_name) %>% summarise(total_quota = sum(as.numeric(general_quota)), 
    max = max(max_score), min = min(min_score))
print(medicals)

## # A tibble: 93 x 4
##    university_name                           total_quota   max   min
##    <chr>                                           <dbl> <dbl> <dbl>
##  1 ABANT ZZET BAYSAL NVERSTES                  140.  483.  465.
##  2 ACIBADEM MEHMET AL AYDINLAR NVERSTES         70.  542.  486.
##  3 ADIYAMAN NVERSTES                            115.  490.  454.
##  4 ADNAN MENDERES NVERSTES                      195.  492.  467.
##  5 AFYON KOCATEPE NVERSTES                      170.  487.  461.
##  6 AH EVRAN NVERSTES                            60.  469.  456.
##  7 AKDENZ NVERSTES                             260.  533.  486.
##  8 AKSARAY NVERSTES                              30.  469.  461.
##  9 ALANYA ALAADDN KEYKUBAT NVERSTES             60.  485.  467.
## 10 ALTINBA NVERSTES                             60.  480.  423.
## # ... with 83 more rows
…
